{
    "results": [
        {
            "vote_count": 333,
            "id": 456740,
            "video": false,
            "vote_average": 5.1,
            "title": "Hellboy",
            "popularity": 184.343,
            "poster_path": "\/bk8LyaMqUtaQ9hUShuvFznQYQKR.jpg",
            "original_language": "en",
            "original_title": "Hellboy",
            "genre_ids": [
                28,
                12,
                14
            ],
            "backdrop_path": "\/5BkSkNtfrnTuKOtTaZhl8avn4wU.jpg",
            "adult": false,
            "overview": "Hellboy comes to England, where he must defeat Nimue, Merlin's consort and the Blood Queen. But their battle will bring about the end of the world, a fate he desperately tries to turn away.",
            "release_date": "2019-04-10"
        },
        {
            "vote_count": 141,
            "id": 447404,
            "video": false,
            "vote_average": 7.2,
            "title": "Pokémon Detective Pikachu",
            "popularity": 171.805,
            "poster_path": "\/wgQ7APnFpf1TuviKHXeEe3KnsTV.jpg",
            "original_language": "en",
            "original_title": "Pokémon Detective Pikachu",
            "genre_ids": [
                9648,
                10751,
                80,
                14,
                35,
                878
            ],
            "backdrop_path": "\/nDP33LmQwNsnPv29GQazz59HjJI.jpg",
            "adult": false,
            "overview": "In a world where people collect pocket-size monsters (Pokémon) to do battle, a boy comes across an intelligent monster who seeks to be a detective.",
            "release_date": "2019-05-03"
        },
        {
            "vote_count": 305,
            "id": 457799,
            "video": false,
            "vote_average": 7.1,
            "title": "Extremely Wicked, Shockingly Evil and Vile",
            "popularity": 68.502,
            "poster_path": "\/zSuJ3r5zr5T26tTxyygHhgkUAIM.jpg",
            "original_language": "en",
            "original_title": "Extremely Wicked, Shockingly Evil and Vile",
            "genre_ids": [
                53,
                80,
                18,
                36
            ],
            "backdrop_path": "\/5yXNf13ly6kFQSbI5BZRQlDhCib.jpg",
            "adult": false,
            "overview": "A chronicle of the crimes of Ted Bundy, from the perspective of his longtime girlfriend, Elizabeth Kloepfer, who refused to believe the truth about him for years.",
            "release_date": "2019-05-02"
        },
        {
            "vote_count": 12,
            "id": 449562,
            "video": false,
            "vote_average": 6.8,
            "title": "The Hustle",
            "popularity": 54.067,
            "poster_path": "\/qibqW5Dnvqp4hcEnoTARbQgxwJy.jpg",
            "original_language": "en",
            "original_title": "The Hustle",
            "genre_ids": [
                35
            ],
            "backdrop_path": "\/s6awXOxTKYQLSktiIJfI3969dZH.jpg",
            "adult": false,
            "overview": "Two female scam artists, one low rent and the other high class, compete to swindle a naïve tech prodigy out of his fortune. A remake of the 1988 comedy \"Dirty Rotten Scoundrels.\"",
            "release_date": "2019-05-09"
        },
        {
            "vote_count": 5,
            "id": 458156,
            "video": false,
            "vote_average": 7.4,
            "title": "John Wick: Chapter 3 – Parabellum",
            "popularity": 51.994,
            "poster_path": "\/ziEuG1essDuWuC5lpWUaw1uXY2O.jpg",
            "original_language": "en",
            "original_title": "John Wick: Chapter 3 – Parabellum",
            "genre_ids": [
                80,
                28,
                53
            ],
            "backdrop_path": "\/jEjyjX4izUucoq7A9jmbcT6q3e1.jpg",
            "adult": false,
            "overview": "John Wick is on the run for two reasons… he’s being hunted for a global $14 million dollar open contract on his life, and for breaking a central rule: taking a life on Continental Hotel grounds. The victim was a member of the High Table who ordered the open contract. John should have already been executed, except the Continental’s manager, Winston, has given him a one-hour grace period before he’s “Excommunicado” – membership revoked, banned from all services and cut off from other members. John uses the service industry to stay alive as he fights and kills his way out of New York City.",
            "release_date": "2019-05-15"
        },
        {
            "vote_count": 107,
            "id": 376865,
            "video": false,
            "vote_average": 5.9,
            "title": "High Life",
            "popularity": 47.142,
            "poster_path": "\/wElOvH7H6sLElsTOLu1MY6oWRUx.jpg",
            "original_language": "en",
            "original_title": "High Life",
            "genre_ids": [
                878,
                18,
                9648,
                53,
                27
            ],
            "backdrop_path": "\/9M18vLHaaS3SNdHYrIsIWIHCm1W.jpg",
            "adult": false,
            "overview": "Monte and his baby daughter are the last survivors of a damned and dangerous mission to the outer reaches of the solar system. They must now rely on each other to survive as they hurtle toward the oblivion of a black hole.",
            "release_date": "2018-11-07"
        },
        {
            "vote_count": 0,
            "id": 531309,
            "video": false,
            "vote_average": 0,
            "title": "Brightburn",
            "popularity": 43.066,
            "poster_path": "\/roslEbKdY0WSgYaB5KXvPKY0bXS.jpg",
            "original_language": "en",
            "original_title": "Brightburn",
            "genre_ids": [
                27,
                878,
                18,
                53
            ],
            "backdrop_path": "\/uHEI6v8ApQusjbaRZ8o7WcLYeWb.jpg",
            "adult": false,
            "overview": "What if a child from another world crash-landed on Earth, but instead of becoming a hero to mankind, he proved to be something far more sinister?",
            "release_date": "2019-05-23"
        },
        {
            "vote_count": 35,
            "id": 459992,
            "video": false,
            "vote_average": 6.9,
            "title": "Long Shot",
            "popularity": 39.747,
            "poster_path": "\/m2ttWZ8rMRwIMT7zA48Jo6mTkDS.jpg",
            "original_language": "en",
            "original_title": "Long Shot",
            "genre_ids": [
                35,
                10749
            ],
            "backdrop_path": "\/88r25ghJzVYKq0vaOApqEOZsQlD.jpg",
            "adult": false,
            "overview": "When Fred Flarsky reunites with his first crush, one of the most influential women in the world, Charlotte Field, he charms her. As she prepares to make a run for the Presidency, Charlotte hires Fred as her speechwriter and sparks fly.",
            "release_date": "2019-05-02"
        },
        {
            "vote_count": 0,
            "id": 420817,
            "video": false,
            "vote_average": 0,
            "title": "Aladdin",
            "popularity": 35.782,
            "poster_path": "\/3iYQTLGoy7QnjcUYRJy4YrAgGvp.jpg",
            "original_language": "en",
            "original_title": "Aladdin",
            "genre_ids": [
                12,
                14,
                10402,
                10749
            ],
            "backdrop_path": "\/v4yVTbbl8dE1UP2dWu5CLyaXOku.jpg",
            "adult": false,
            "overview": "A live-action retelling of the 1992 Disney film of the same name.",
            "release_date": "2019-05-22"
        },
        {
            "vote_count": 34,
            "id": 514439,
            "video": false,
            "vote_average": 6.6,
            "title": "Breakthrough",
            "popularity": 33.689,
            "poster_path": "\/t58dx7JIgchr9If5uxn3NmHaHoS.jpg",
            "original_language": "en",
            "original_title": "Breakthrough",
            "genre_ids": [
                18
            ],
            "backdrop_path": "\/6jaNHf9ja84YG3KWMDK1nOnvGDg.jpg",
            "adult": false,
            "overview": "When he was 14, Smith drowned in Lake St. Louis and was dead for nearly an hour. According to reports at the time, CPR was performed 27 minutes to no avail. Then the youth's mother, Joyce Smith, entered the room, praying loudly. Suddenly, there was a pulse, and Smith came around.",
            "release_date": "2019-04-11"
        },
        {
            "vote_count": 39,
            "id": 458253,
            "video": false,
            "vote_average": 7.2,
            "title": "Missing Link",
            "popularity": 33.543,
            "poster_path": "\/gEkKHiiQRVUSX15Iwo8VFydXrtu.jpg",
            "original_language": "en",
            "original_title": "Missing Link",
            "genre_ids": [
                16,
                35,
                12,
                14,
                10751
            ],
            "backdrop_path": "\/ob4XnKBqAh1rg381hayebJx6EkE.jpg",
            "adult": false,
            "overview": "The charismatic Sir Lionel Frost considers himself to be the world's foremost investigator of myths and monsters. Trouble is, none of his small-minded, high-society peers seems to recognize this. Hoping to finally gain acceptance from these fellow adventurers, Sir Lionel travels to the Pacific Northwest to prove the existence of a legendary creature known as the missing link.",
            "release_date": "2019-04-04"
        },
        {
            "vote_count": 5,
            "id": 471859,
            "video": false,
            "vote_average": 4,
            "title": "Charlie Says",
            "popularity": 29.904,
            "poster_path": "\/nwYDXLQpPULdUbwkTc4gWpMJufn.jpg",
            "original_language": "en",
            "original_title": "Charlie Says",
            "genre_ids": [
                18,
                80
            ],
            "backdrop_path": "\/3IrcrzWYNJYQoows7xYS6fJWz3n.jpg",
            "adult": false,
            "overview": "Three young women were sentenced to death in the infamous Manson murder case, but when the death penalty was lifted, their sentence became life imprisonment. One young graduate student was sent in to teach them - and through her we witness their transformations as they face the reality of their horrific crimes.",
            "release_date": "2019-05-10"
        },
        {
            "vote_count": 53,
            "id": 500904,
            "video": false,
            "vote_average": 4.7,
            "title": "A Vigilante",
            "popularity": 24.277,
            "poster_path": "\/avoKZfgBzyBGJsrAr2WQOwZK978.jpg",
            "original_language": "en",
            "original_title": "A Vigilante",
            "genre_ids": [
                53,
                18
            ],
            "backdrop_path": "\/kReEky4XRCAq22H5V37kDcNY9dj.jpg",
            "adult": false,
            "overview": "A once abused woman, Sadie, devotes herself to ridding victims of their domestic abusers while hunting down the husband she must kill to truly be free.",
            "release_date": "2019-03-29"
        },
        {
            "vote_count": 161,
            "id": 453755,
            "video": false,
            "vote_average": 6.2,
            "title": "Arctic",
            "popularity": 24.045,
            "poster_path": "\/dxRc0Y4IjSRLC2fYaguXQtJCI4e.jpg",
            "original_language": "en",
            "original_title": "Arctic",
            "genre_ids": [
                18,
                12
            ],
            "backdrop_path": "\/adNNHvX31BATsQjSBurupj0gt30.jpg",
            "adult": false,
            "overview": "A man stranded in the Arctic is finally about to receive his long awaited rescue. However, after a tragic accident, his opportunity is lost and he must then decide whether to remain in the relative safety of his camp or embark on a deadly trek through the unknown for potential salvation.",
            "release_date": "2018-07-26"
        },
        {
            "vote_count": 2723,
            "id": 1368,
            "video": false,
            "vote_average": 7.3,
            "title": "First Blood",
            "popularity": 21.975,
            "poster_path": "\/bbYNNEGLXrV3lJpHDg7CKaPscCb.jpg",
            "original_language": "en",
            "original_title": "First Blood",
            "genre_ids": [
                28,
                12,
                53,
                10752
            ],
            "backdrop_path": "\/cU3goO0TMNDWxgDwILAARyiblXK.jpg",
            "adult": false,
            "overview": "When former Green Beret John Rambo is harassed by local law enforcement and arrested for vagrancy, the Vietnam vet snaps, runs for the hills and rat-a-tat-tats his way into the action-movie hall of fame. Hounded by a relentless sheriff, Rambo employs heavy-handed guerilla tactics to shake the cops off his tail.",
            "release_date": "1982-10-22"
        },
        {
            "vote_count": 8303,
            "id": 694,
            "video": false,
            "vote_average": 8.2,
            "title": "The Shining",
            "popularity": 20.707,
            "poster_path": "\/9fgh3Ns1iRzlQNYuJyK0ARQZU7w.jpg",
            "original_language": "en",
            "original_title": "The Shining",
            "genre_ids": [
                27,
                53
            ],
            "backdrop_path": "\/h4DcDCOkQBENWBJZjNlPv3adQfM.jpg",
            "adult": false,
            "overview": "Jack Torrance accepts a caretaker job at the Overlook Hotel, where he, along with his wife Wendy and their son Danny, must live isolated from the rest of the world for the winter. But they aren't prepared for the madness that lurks within.",
            "release_date": "1980-05-22"
        },
        {
            "vote_count": 0,
            "id": 373571,
            "video": false,
            "vote_average": 0,
            "title": "Godzilla: King of the Monsters",
            "popularity": 20.273,
            "poster_path": "\/pU3bnutJU91u3b4IeRPQTOP8jhV.jpg",
            "original_language": "en",
            "original_title": "Godzilla: King of the Monsters",
            "genre_ids": [
                28,
                878,
                53
            ],
            "backdrop_path": "\/mzRJpkWPjXdXak0WCc8ZxVH4hug.jpg",
            "adult": false,
            "overview": "The new story follows the heroic efforts of the crypto-zoological agency Monarch as its members face off against a battery of god-sized monsters, including the mighty Godzilla, who collides with Mothra, Rodan, and his ultimate nemesis, the three-headed King Ghidorah. When these ancient super-species—thought to be mere myths—rise again, they all vie for supremacy, leaving humanity’s very existence hanging in the balance.",
            "release_date": "2019-05-29"
        },
        {
            "vote_count": 0,
            "id": 504608,
            "video": false,
            "vote_average": 0,
            "title": "Rocketman",
            "popularity": 18.855,
            "poster_path": "\/f4FF18ia7yTvHf2izNrHqBmgH8U.jpg",
            "original_language": "en",
            "original_title": "Rocketman",
            "genre_ids": [
                10402,
                18
            ],
            "backdrop_path": "\/oAr5bgf49vxga9etWoQpAeRMvhp.jpg",
            "adult": false,
            "overview": "The story of Elton John's life, from his years as a prodigy at the Royal Academy of Music through his influential and enduring musical partnership with Bernie Taupin.",
            "release_date": "2019-05-18"
        },
        {
            "vote_count": 0,
            "id": 411144,
            "video": false,
            "vote_average": 0,
            "title": "We Have Always Lived in the Castle",
            "popularity": 18.741,
            "poster_path": "\/2xg0n31TXPULoNuSeRNWPEHIcjF.jpg",
            "original_language": "en",
            "original_title": "We Have Always Lived in the Castle",
            "genre_ids": [
                18,
                9648,
                53
            ],
            "backdrop_path": "\/fFI2MuuA2gRRFuYVKMdVWojPmHW.jpg",
            "adult": false,
            "overview": "An isolated family, having already lost four members to poisoning, uses rituals and talismans to keep itself away from hostile townspeople.",
            "release_date": "2019-05-17"
        },
        {
            "vote_count": 36,
            "id": 471506,
            "video": false,
            "vote_average": 6.2,
            "title": "Greta",
            "popularity": 18.354,
            "poster_path": "\/9hBpFyJ3pGdupXbaC2L7nGvLMBn.jpg",
            "original_language": "en",
            "original_title": "Greta",
            "genre_ids": [
                53,
                18,
                27,
                9648
            ],
            "backdrop_path": "\/n67gpLtNFXqpGkM2ZdQoPLjTnI.jpg",
            "adult": false,
            "overview": "A young woman returns an elderly widow’s lost purse, leading to an unlikely relationship between the two — until the young woman discovers her elder might not be all that she seems.",
            "release_date": "2019-02-28"
        }
    ],
    "page": 1,
    "total_results": 198,
    "dates": {
        "maximum": "2019-06-03",
        "minimum": "2019-05-17"
    },
    "total_pages": 10
}